3037128,3550,746,248,125,85,56,39
2876448,3186,649,205,93,47,41,28
2650943,2507,464,122,39,21,18,23
2467966,1805,314,41,19,11,11,24
2320033,1103,159,41,3,1,5,6
2209646,770,50,0,1,1,4,0
2137478,474,6,1,2,0,0,0
2103685,475,25,3,0,0,0,0