MapSize,Slippery,Learner,Time(secs),Rewards,Avg Reward,Iterations,PolicyIter,Discount,Alpha,AlphaDecay,AlphaMin,Epsilon,EpsilonDecay,EpsilonMin
4,False,Q,0.6208,0,0.000,10000,10000,0.95,0.100,0.990,0.001,1.000,0.990,0.100
4,False,Q,5.0971,0,0.000,100000,100000,0.95,0.100,0.990,0.001,1.000,0.990,0.100
4,False,Q,57.7008,1000,1.000,1000000,1000000,0.95,0.100,0.990,0.001,1.000,0.990,0.100
4,True,Q,0.6279,0,0.000,10000,10000,0.95,0.100,0.990,0.001,1.000,0.990,0.100
4,True,Q,5.3346,155,0.155,100000,100000,0.95,0.100,0.990,0.001,1.000,0.990,0.100
4,True,Q,50.3333,159,0.159,1000000,1000000,0.95,0.100,0.990,0.001,1.000,0.990,0.100