MapSize,Slippery,Learner,Time(secs),Rewards,Avg Reward,Iterations,PolicyIter,Discount
4,True,PI,0.0039,721,1000,0.721,100000,7,0.99
4,True,PI,0.0035,729,1000,0.729,200000,7,0.99
4,True,PI,0.0035,747,1000,0.747,300000,7,0.99
4,True,PI,0.0035,742,1000,0.742,100000,6,0.95
4,True,PI,0.0030,734,1000,0.734,200000,6,0.95
4,True,PI,0.0029,749,1000,0.749,300000,6,0.95
4,True,PI,0.0051,710,1000,0.710,100000,6,0.90
4,True,PI,0.0028,734,1000,0.734,200000,6,0.90
4,True,PI,0.0029,737,1000,0.737,300000,6,0.90
4,True,PI,47.3253,739,1000,0.739,100000,100000,0.85
4,True,PI,92.9160,762,1000,0.762,200000,200000,0.85
4,True,PI,138.4338,756,1000,0.756,300000,300000,0.85
4,True,PI,0.0109,445,1000,0.445,100000,7,0.80
4,True,PI,0.0033,432,1000,0.432,200000,7,0.80
4,True,PI,0.0037,448,1000,0.448,300000,7,0.80
4,True,PI,0.0032,426,1000,0.426,100000,6,0.75
4,True,PI,0.0029,458,1000,0.458,200000,6,0.75
4,True,PI,0.0034,444,1000,0.444,300000,6,0.75
4,True,VI,0.0823,738,1000,0.738,100000,916,0.99
4,True,VI,0.0708,762,1000,0.762,200000,916,0.99
4,True,VI,0.0686,737,1000,0.737,300000,916,0.99
4,True,VI,0.0116,725,1000,0.725,100000,148,0.95
4,True,VI,0.0138,745,1000,0.745,200000,148,0.95
4,True,VI,0.0125,734,1000,0.734,300000,148,0.95
4,True,VI,0.0048,720,1000,0.720,100000,65,0.90
4,True,VI,0.0064,737,1000,0.737,200000,65,0.90
4,True,VI,0.0048,754,1000,0.754,300000,65,0.90
4,True,VI,0.0031,724,1000,0.724,100000,40,0.85
4,True,VI,0.0029,720,1000,0.720,200000,40,0.85
4,True,VI,0.0032,715,1000,0.715,300000,40,0.85
4,True,VI,0.0020,446,1000,0.446,100000,27,0.80
4,True,VI,0.0021,441,1000,0.441,200000,27,0.80
4,True,VI,0.0016,417,1000,0.417,100000,20,0.75
4,True,VI,0.0015,440,1000,0.440,200000,20,0.75
4,True,VI,0.0022,460,1000,0.460,300000,20,0.75
4,True,PI,50.6616,714,1000,0.714,100000,100000,0.85
4,True,VI,0.0027,713,1000,0.713,100000,40,0.85
4,True,PI,94.4191,747,1000,0.747,200000,200000,0.85
4,True,VI,0.0049,736,1000,0.736,200000,40,0.85
4,True,PI,142.5278,731,1000,0.731,300000,300000,0.85
4,True,VI,0.0033,712,1000,0.712,300000,40,0.85
8,True,PI,116.5382,851,1000,0.851,100000,100000,0.99
8,True,PI,224.4319,877,1000,0.877,200000,200000,0.99
8,True,PI,373.0379,852,1000,0.852,300000,300000,0.99
8,True,PI,133.5985,754,1000,0.754,100000,100000,0.95
8,True,PI,222.8809,726,1000,0.726,200000,200000,0.95
8,True,PI,309.1835,765,1000,0.765,300000,300000,0.95
8,True,PI,0.0087,729,1000,0.729,100000,7,0.90
8,True,PI,0.0075,729,1000,0.729,200000,7,0.90
8,True,PI,0.0069,721,1000,0.721,300000,7,0.90
8,True,PI,120.9220,664,1000,0.664,100000,100000,0.85
8,True,PI,219.8461,714,1000,0.714,200000,200000,0.85
8,True,PI,250.4791,692,1000,0.692,300000,300000,0.85
8,True,PI,112.5387,690,1000,0.690,100000,100000,0.80
8,True,PI,238.4416,641,1000,0.641,200000,200000,0.80
8,True,PI,262.6985,648,1000,0.648,300000,300000,0.80
8,True,PI,0.0094,645,1000,0.645,100000,9,0.75
8,True,PI,0.0089,627,1000,0.627,200000,9,0.75
8,True,PI,0.0084,613,1000,0.613,300000,9,0.75
8,True,VI,0.0810,840,1000,0.840,100000,985,0.99
8,True,VI,0.0868,864,1000,0.864,200000,985,0.99
8,True,VI,0.0901,854,1000,0.854,300000,985,0.99
8,True,VI,0.0334,734,1000,0.734,100000,161,0.95
8,True,VI,0.0138,729,1000,0.729,200000,161,0.95
8,True,VI,0.0161,719,1000,0.719,300000,161,0.95
8,True,VI,0.0059,734,1000,0.734,100000,72,0.90
8,True,VI,0.0068,723,1000,0.723,200000,72,0.90
8,True,VI,0.0058,714,1000,0.714,300000,72,0.90
8,True,VI,0.0036,717,1000,0.717,100000,44,0.85
8,True,VI,0.0074,689,1000,0.689,200000,44,0.85
8,True,VI,0.0054,689,1000,0.689,300000,44,0.85
8,True,VI,0.0029,675,1000,0.675,100000,30,0.80
8,True,VI,0.0028,634,1000,0.634,200000,30,0.80
8,True,VI,0.0024,636,1000,0.636,300000,30,0.80
8,True,VI,0.0019,629,1000,0.629,100000,23,0.75
8,True,VI,0.0041,588,1000,0.588,200000,23,0.75
8,True,VI,0.0018,612,1000,0.612,300000,23,0.75











